<svg xmlns="http://www.w3.org/2000/svg" width="34" height="20" fill="none" viewBox="0 0 34 20">
    <path fill="#fff" d="M4.151.722C2.192-1.35-.909 1.932 1.213 4.006l14.2 15.207c.815.864 2.284.864 3.1 0L32.876 4.006c1.958-2.074-1.143-5.357-3.101-3.284l-12.73 13.48L4.15.722z"/>
</svg>
