{
	"title": "Buying component",
	"type": "object",
	"required": [
		"title",
		"images",
		"content"
	],
	"properties": {
		"identifier": {
			"type": "string",
			"title": "Identifier"
		},
		"title": {
			"type": "string",
			"title": "Title"
		},
		"hideVariants": {
			"type": "boolean",
			"default": false,
			"title": "Hide variants"
		},
		"preChoosenVariant": {
			"type": "number",
			"default": 0,
			"title": "Pre selected variant index (in list)"
		},
		"images": {
			"type": "array",
			"title": "Images",
			"minItems": 1,
			"maxItems": 3,
			"items": {
				"type": "string",
				"format": "uri",
				"title": "URL"
			}
		},
		"content": {
			"type": "array",
			"title": "Variants",
			"items": {
				"type": "object",
				"required": [
					"title",
					"price",
					"variantID"
				],
				"properties": {
					"title": {
						"type": "string",
						"title": "Variant name"
					},
					"variantID": {
						"type": "string",
						"title": "Variant ID"
					},
					"price": {
						"type": "string",
						"title": "Price"
					},
					"compareAtPrice": {
						"type": "string",
						"title": "Non reduced price when price is reduced"
					}
				}
			}
		}
	}
}
