{
	"title": "Pricing component",
	"type": "object",
	"required": [
		"title",
		"background",
		"content"
	],
	"properties": {
		"identifier": {
			"type": "string",
			"title": "Identifier"
		},
		"title": {
			"type": "string",
			"title": "Title"
		},
		"background": {
			"type": "string",
			"title": "Background Image"
		},
		"content": {
			"type": "array",
			"title": "Pricing",
			"items": {
				"type": "object",
				"required": [
					"title",
					"description",
					"price",
					"buttonText",
					"buttonUrl"
				],
				"properties": {
					"title": {
						"type": "string",
						"title": "Title"
					},
					"description": {
						"type": "string",
						"title": "Description"
					},
					"price": {
						"type": "string",
						"title": "Price"
					},
					"compareAtPrice": {
						"type": "string",
						"title": "Original price when Price is reduced"
					},
					"currency": {
						"type": "string",
						"enum": ["€", "$"],
						"default": "€",
						"title": "Currency"
					},
					"monthly": {
						"type": "boolean",
						"default": false,
						"title": "Monthly"
					},
					"buttonText": {
						"type": "string",
						"title": "Button Text"
					},
					"buttonUrl": {
            "type": "string",
            "pattern": "(?:|^)#[A-Za-z0-9\\-\\.\\_]+(?:|$)|(https?:\\\/\\\/)?(www\\.)[-a-zA-Z0-9@:%._\\+~#=]{2,256}\\.[a-z]{2,4}\\b([-a-zA-Z0-9@:%_\\+.~#?&\/\/=]*)|(https?:\\\/\\\/)?(www\\.)?(?!ww)[-a-zA-Z0-9@:%._\\+~#=]{2,256}\\.[a-z]{2,4}\\b([-a-zA-Z0-9@:%_\\+.~#?&\/\/=]*)",
						"title": "Button Url"
					}
				}
			}
		}
	}
}
