{
	"title": "Registration Component",
	"type": "object",
	"required": [
		"title",
    "description",
    "formURL",
    "fields"
	],
	"properties": {
		"identifier": {
			"type": "string",
			"title": "Identifier"
		},
		"title": {
			"type": "string",
			"title": "Title"
		},
		"description": {
			"type": "string",
			"title": "Registration description"
		},
		"formURL": {
			"type": "string",
			"title": "Submit URL"
		},
		"fields": {
			"type": "array",
			"title": "Fields",
			"items": {
				"type": "object",
				"required": [
					"type",
          "title",
          "name"
				],
				"properties": {
					"type": {
						"type": "string",
						"title": "Input Type"
					},
					"title": {
						"type": "string",
						"title": "Input Title"
					},
					"required": {
						"type": "boolean",
						"title": "If the field is required"
					},
					"name": {
						"type": "string",
						"title": "Input Variable Name"
					},
					"defaultChecked": {
						"type": "boolean",
						"title": "If the field is checked by default"
					},
					"value": {
						"type": "string",
						"title": "Default value of the input"
					},
					"accept": {
						"type": "string",
						"title": "Kind of files the field accepts"
					},
					"alt": {
						"type": "string",
						"title": "Alt text for image fields"
					},
					"max": {
						"type": "number",
						"title": "Maximum value of the input"
					},
					"maxLength": {
						"type": "number",
						"title": "Maximum lenght of the input"
					},
					"min": {
						"type": "number",
						"title": "Minimum value of the input"
					},
					"minLength": {
						"type": "number",
						"title": "Minimum lenght of the input"
					},
					"pattern": {
						"type": "string",
						"title": "Pattern to validate the string value"
					},
					"placeholder": {
						"type": "string",
						"title": "Text shown to help the user to input"
					}
				}
			}
		}
	}
}
