<svg width="449" height="172" fill="none" xmlns="http://www.w3.org/2000/svg">
    <g clip-path="url(#a)" fill="#fff" fill-opacity=".45">
        <path d="M80.282 40.01c-1.582-2.883-4.284-4.983-7.607-5.914a12.686 12.686 0 0 0-9.145.874c.006-.9.001-1.741-.004-2.521-.002-.477-.005-.934-.005-1.368 0-1.194-.98-2.162-2.19-2.162H2.944c-1.209 0-2.19.968-2.19 2.162 0 .434-.002.89-.005 1.368-.049 8.44-.14 24.15 13.909 40.568a2.202 2.202 0 0 0 1.672.767h31.617c.644 0 1.256-.28 1.672-.767a64.523 64.523 0 0 0 3.58-4.58c2.893-.435 23.321-4.01 27.906-18.586 1.076-3.419.784-6.914-.822-9.84zM17.355 69.46C5.375 55.005 5.085 41.603 5.123 33.242h54.03c.037 8.361-.252 21.763-12.233 36.216H17.354zm59.569-20.893c-2.88 9.153-14.252 13.21-20.485 14.777 4.854-8.581 6.402-16.573 6.883-22.94a8.329 8.329 0 0 1 5.897-2.46 8.4 8.4 0 0 1 2.261.312c2.179.61 3.938 1.965 4.952 3.814 1.055 1.922 1.224 4.168.492 6.497zM20.644 22.162c0 1.194.98 2.163 2.19 2.163 1.209 0 2.189-.969 2.189-2.163 0-.665.113-.903.338-1.376.32-.67.756-1.586.756-3.219 0-1.632-.436-2.548-.756-3.218-.225-.473-.338-.711-.338-1.376 0-.666.113-.903.338-1.377.32-.669.756-1.585.756-3.217 0-1.194-.98-2.163-2.189-2.163s-2.189.969-2.189 2.163c0 .665-.113.903-.339 1.376-.319.67-.756 1.586-.756 3.218 0 1.631.437 2.548.756 3.217.226.474.339.712.339 1.377 0 .666-.113.904-.339 1.378-.32.669-.756 1.585-.756 3.217zM29.401 22.162c0 1.194.98 2.163 2.19 2.163 1.208 0 2.188-.969 2.188-2.163 0-.665.114-.903.34-1.376.318-.67.755-1.586.755-3.219 0-1.632-.437-2.548-.756-3.218-.225-.473-.339-.711-.339-1.376 0-.666.114-.903.34-1.377.318-.669.755-1.585.755-3.217 0-1.194-.98-2.163-2.19-2.163-1.208 0-2.188.969-2.188 2.163 0 .665-.114.903-.34 1.376-.318.67-.755 1.586-.755 3.218 0 1.631.437 2.548.756 3.217.225.474.339.712.339 1.377 0 .666-.114.904-.34 1.378-.318.669-.755 1.585-.755 3.217zM38.158 22.162c0 1.194.98 2.163 2.189 2.163s2.19-.969 2.19-2.163c0-.665.113-.903.338-1.376.32-.67.756-1.586.756-3.219 0-1.632-.437-2.548-.756-3.218-.225-.473-.339-.711-.339-1.376 0-.666.114-.903.339-1.377.32-.669.756-1.585.756-3.217 0-1.194-.98-2.163-2.19-2.163-1.208 0-2.189.969-2.189 2.163 0 .665-.113.903-.338 1.376-.32.67-.756 1.586-.756 3.218 0 1.631.437 2.548.756 3.217.225.474.338.712.338 1.377 0 .666-.113.904-.338 1.378-.32.669-.756 1.585-.756 3.217z"/>
    </g>
    <g clip-path="url(#b)" fill="#fff" fill-opacity=".45">
        <path d="M320.915 40.01c-1.582-2.883-4.284-4.983-7.608-5.914a12.683 12.683 0 0 0-9.144.874c.005-.9.001-1.741-.004-2.521-.003-.477-.005-.934-.005-1.368 0-1.194-.981-2.162-2.19-2.162h-58.388c-1.209 0-2.189.968-2.189 2.162 0 .434-.003.89-.006 1.368-.049 8.44-.14 24.15 13.908 40.568a2.203 2.203 0 0 0 1.672.767h31.617a2.2 2.2 0 0 0 1.672-.767 64.426 64.426 0 0 0 3.581-4.58c2.893-.435 23.321-4.01 27.906-18.586 1.076-3.419.784-6.914-.822-9.84zm-62.927 29.45c-11.981-14.454-12.27-27.856-12.233-36.217h54.03c.038 8.361-.252 21.763-12.233 36.216h-29.564zm59.569-20.893c-2.88 9.153-14.252 13.21-20.485 14.777 4.853-8.581 6.402-16.573 6.883-22.94a8.329 8.329 0 0 1 5.897-2.46c.76 0 1.521.105 2.261.312 2.179.61 3.937 1.965 4.952 3.814 1.054 1.922 1.224 4.168.492 6.497zM261.277 22.162c0 1.194.98 2.163 2.189 2.163s2.189-.969 2.189-2.163c0-.665.114-.903.339-1.376.319-.67.756-1.586.756-3.219 0-1.632-.437-2.548-.756-3.218-.225-.473-.339-.711-.339-1.376 0-.666.114-.903.339-1.377.319-.669.756-1.585.756-3.217 0-1.194-.98-2.163-2.189-2.163s-2.189.969-2.189 2.163c0 .665-.114.903-.339 1.376-.319.67-.756 1.586-.756 3.218 0 1.631.437 2.548.756 3.217.225.474.339.712.339 1.377 0 .666-.114.904-.339 1.378-.319.669-.756 1.585-.756 3.217zM270.034 22.162c0 1.194.98 2.163 2.189 2.163s2.189-.969 2.189-2.163c0-.665.114-.903.339-1.376.319-.67.756-1.586.756-3.219 0-1.632-.437-2.548-.756-3.218-.225-.473-.339-.711-.339-1.376 0-.666.114-.903.339-1.377.319-.669.756-1.585.756-3.217 0-1.194-.98-2.163-2.189-2.163s-2.19.969-2.19 2.163c0 .665-.113.903-.338 1.376-.319.67-.756 1.586-.756 3.218 0 1.631.437 2.548.756 3.217.225.474.338.712.338 1.377 0 .666-.113.904-.338 1.378-.32.669-.756 1.585-.756 3.217zM278.791 22.162c0 1.194.98 2.163 2.189 2.163s2.189-.969 2.189-2.163c0-.665.113-.903.339-1.376.319-.67.756-1.586.756-3.219 0-1.632-.437-2.548-.756-3.218-.226-.473-.339-.711-.339-1.376 0-.666.113-.903.339-1.377.319-.669.756-1.585.756-3.217 0-1.194-.981-2.163-2.19-2.163s-2.189.969-2.189 2.163c0 .665-.113.903-.339 1.376-.319.67-.755 1.586-.755 3.218 0 1.631.436 2.548.755 3.217.226.474.339.712.339 1.377 0 .666-.113.904-.339 1.378-.319.669-.755 1.585-.755 3.217z"/>
    </g>
    <g clip-path="url(#c)" fill="#fff" fill-opacity=".45">
        <path d="M206.665 132.01c-1.582-2.883-4.284-4.983-7.608-5.914a12.686 12.686 0 0 0-9.144.874c.005-.899.001-1.741-.004-2.521-.003-.478-.005-.934-.005-1.368 0-1.194-.981-2.162-2.189-2.162h-58.389c-1.209 0-2.189.968-2.189 2.162 0 .434-.003.89-.006 1.368-.049 8.44-.14 24.149 13.909 40.568a2.2 2.2 0 0 0 1.672.767h31.616c.645 0 1.257-.281 1.672-.767a64.223 64.223 0 0 0 3.581-4.58c2.893-.435 23.321-4.011 27.906-18.586 1.076-3.419.784-6.914-.822-9.841zm-62.927 29.449c-11.981-14.453-12.27-27.855-12.233-36.216h54.03c.038 8.361-.252 21.763-12.233 36.216h-29.564zm59.569-20.892c-2.88 9.153-14.252 13.21-20.485 14.777 4.853-8.581 6.402-16.573 6.883-22.94a8.33 8.33 0 0 1 5.897-2.46c.76 0 1.521.105 2.261.312 2.179.61 3.938 1.965 4.952 3.814 1.054 1.922 1.224 4.168.492 6.497zM147.027 114.162c0 1.194.98 2.162 2.189 2.162s2.19-.968 2.19-2.162c0-.665.113-.903.338-1.376.319-.67.756-1.586.756-3.219 0-1.632-.437-2.548-.756-3.218-.225-.473-.338-.711-.338-1.376 0-.666.113-.903.338-1.377.319-.669.756-1.586.756-3.217 0-1.195-.98-2.163-2.189-2.163s-2.189.969-2.189 2.163c0 .665-.113.903-.339 1.376-.319.669-.756 1.586-.756 3.218s.437 2.548.756 3.217c.226.474.339.712.339 1.377 0 .666-.113.904-.339 1.377-.319.67-.756 1.586-.756 3.218zM155.784 114.162c0 1.194.98 2.162 2.189 2.162s2.189-.968 2.189-2.162c0-.665.114-.903.339-1.376.319-.67.756-1.586.756-3.219 0-1.632-.437-2.548-.756-3.218-.225-.473-.339-.711-.339-1.376 0-.666.114-.903.339-1.377.319-.669.756-1.586.756-3.217 0-1.195-.98-2.163-2.189-2.163s-2.189.969-2.189 2.163c0 .665-.114.903-.339 1.376-.319.669-.756 1.586-.756 3.218s.437 2.548.756 3.217c.225.474.339.712.339 1.377 0 .666-.114.904-.339 1.377-.32.67-.756 1.586-.756 3.218zM164.541 114.162c0 1.194.98 2.162 2.189 2.162s2.189-.968 2.189-2.162c0-.665.113-.903.339-1.376.319-.67.756-1.586.756-3.219 0-1.632-.437-2.548-.756-3.218-.226-.473-.339-.711-.339-1.376 0-.666.113-.903.339-1.377.319-.669.756-1.586.756-3.217 0-1.195-.981-2.163-2.19-2.163s-2.189.969-2.189 2.163c0 .665-.113.903-.339 1.376-.319.669-.755 1.586-.755 3.218s.436 2.548.755 3.217c.226.474.339.712.339 1.377 0 .666-.113.904-.339 1.377-.319.67-.755 1.586-.755 3.218z"/>
    </g>
    <g clip-path="url(#d)" fill="#fff" fill-opacity=".45">
        <path d="M447.297 132.01c-1.581-2.883-4.283-4.983-7.607-5.914a12.693 12.693 0 0 0-9.145.874c.006-.899.002-1.741-.003-2.521-.003-.478-.006-.934-.006-1.368 0-1.194-.98-2.162-2.189-2.162h-58.388c-1.209 0-2.19.968-2.19 2.162 0 .434-.002.89-.005 1.368-.049 8.44-.14 24.149 13.908 40.568a2.202 2.202 0 0 0 1.672.767h31.617a2.2 2.2 0 0 0 1.672-.767 64.202 64.202 0 0 0 3.58-4.58c2.893-.435 23.322-4.011 27.907-18.586 1.076-3.419.783-6.914-.823-9.841zm-62.926 29.449c-11.981-14.453-12.27-27.855-12.233-36.216h54.03c.037 8.361-.252 21.763-12.233 36.216h-29.564zm59.568-20.892c-2.879 9.153-14.252 13.21-20.484 14.777 4.853-8.581 6.402-16.573 6.883-22.94a8.33 8.33 0 0 1 5.896-2.46c.761 0 1.522.105 2.262.312 2.179.61 3.937 1.965 4.952 3.814 1.054 1.922 1.224 4.168.491 6.497zM387.66 114.162c0 1.194.98 2.162 2.189 2.162s2.189-.968 2.189-2.162c0-.665.114-.903.339-1.376.319-.67.756-1.586.756-3.219 0-1.632-.437-2.548-.756-3.218-.225-.473-.339-.711-.339-1.376 0-.666.114-.903.339-1.377.319-.669.756-1.586.756-3.217 0-1.195-.98-2.163-2.189-2.163s-2.189.969-2.189 2.163c0 .665-.114.903-.339 1.376-.319.669-.756 1.586-.756 3.218s.437 2.548.756 3.217c.225.474.339.712.339 1.377 0 .666-.114.904-.339 1.377-.32.67-.756 1.586-.756 3.218zM396.417 114.162c0 1.194.98 2.162 2.189 2.162s2.189-.968 2.189-2.162c0-.665.113-.903.339-1.376.319-.67.756-1.586.756-3.219 0-1.632-.437-2.548-.756-3.218-.226-.473-.339-.711-.339-1.376 0-.666.113-.903.339-1.377.319-.669.756-1.586.756-3.217 0-1.195-.981-2.163-2.19-2.163s-2.189.969-2.189 2.163c0 .665-.113.903-.338 1.376-.32.669-.756 1.586-.756 3.218s.436 2.548.756 3.217c.225.474.338.712.338 1.377 0 .666-.113.904-.338 1.377-.32.67-.756 1.586-.756 3.218zM405.173 114.162c0 1.194.981 2.162 2.19 2.162s2.189-.968 2.189-2.162c0-.665.113-.903.339-1.376.319-.67.755-1.586.755-3.219 0-1.632-.436-2.548-.755-3.218-.226-.473-.339-.711-.339-1.376 0-.666.113-.903.339-1.377.319-.669.755-1.586.755-3.217 0-1.195-.98-2.163-2.189-2.163s-2.189.969-2.189 2.163c0 .665-.113.903-.339 1.376-.319.669-.756 1.586-.756 3.218s.437 2.548.756 3.217c.226.474.339.712.339 1.377 0 .666-.113.904-.339 1.377-.319.67-.756 1.586-.756 3.218z"/>
    </g>
    <defs>
        <clipPath id="a">
            <path fill="#fff" transform="translate(.742)" d="M0 0h81v80H0z"/>
        </clipPath>
        <clipPath id="b">
            <path fill="#fff" transform="translate(241.375)" d="M0 0h81v80H0z"/>
        </clipPath>
        <clipPath id="c">
            <path fill="#fff" transform="translate(127.125 92)" d="M0 0h81v80H0z"/>
        </clipPath>
        <clipPath id="d">
            <path fill="#fff" transform="translate(367.758 92)" d="M0 0h81v80H0z"/>
        </clipPath>
    </defs>
</svg>
