<svg width="419" height="171" fill="none" xmlns="http://www.w3.org/2000/svg">
    <path d="M40.732 62.333H23.965v-13.55c8.377 0 12.54-3.689 14.77-6.791 2.402-3.341 2.979-6.664 3.002-6.804a1.119 1.119 0 0 0-1.08-1.305c-7.548-.17-12.313 3.57-14.967 6.698a22.434 22.434 0 0 0-1.725 2.328v-13.33c1.03-.107 2.637-.372 4.266-1.031 6.789-.915 10.185-3.923 10.378-9.194.247-6.758 3.003-10.218 3.028-10.249a1.12 1.12 0 0 0-.838-1.834 44.05 44.05 0 0 0-6.099.31c.758-1.94 1.598-2.809 1.613-2.824a1.12 1.12 0 0 0-1.089-1.882c-.117.034-2.422.726-5.1 3.044C28.994 4.413 26.65 1.831 23.2.681l-.002.005a1.112 1.112 0 0 0-.706-.005c-3.453 1.15-5.794 3.732-6.924 5.239-2.678-2.32-4.984-3.01-5.101-3.045a1.117 1.117 0 0 0-1.273.51c-.26.44-.185 1.004.177 1.365.018.019.86.89 1.62 2.831a43.957 43.957 0 0 0-6.099-.31 1.12 1.12 0 0 0-.838 1.835c.028.033 2.779 3.426 3.028 10.248.193 5.271 3.59 8.28 10.38 9.195 1.628.659 3.235.923 4.264 1.03v13.33A22.43 22.43 0 0 0 20 40.58c-2.595-3.058-7.211-6.703-14.47-6.703-.166 0-.928-.105-1.335.411-.2.255-.295.578-.242.899.023.14.6 3.463 3.002 6.804 2.23 3.102 6.345 6.79 14.77 6.79v13.55H4.959A4.671 4.671 0 0 0 .293 67a4.67 4.67 0 0 0 3.843 4.588l2.54 21.943a3.078 3.078 0 0 0-1.742 2.767 3.08 3.08 0 0 0 3.077 3.077h29.67a3.08 3.08 0 0 0 3.077-3.076c0-1.219-.713-2.27-1.741-2.768l2.539-21.943A4.67 4.67 0 0 0 45.398 67a4.672 4.672 0 0 0-4.666-4.666zm-1.548-26.19a16.306 16.306 0 0 1-2.267 4.541c-2.399 3.337-5.803 5.26-10.136 5.743l3.94-2.518a1.12 1.12 0 1 0-1.206-1.887l-3.908 2.498c2.075-3.35 6.25-7.995 13.577-8.377zM14.97 43.91l3.936 2.516c-8.599-.973-11.53-7.438-12.41-10.283 4.687.234 8.634 2.192 11.745 5.827a20.256 20.256 0 0 1 1.857 2.56l-3.922-2.507a1.12 1.12 0 1 0-1.206 1.887zm18.834-25.013c-.522-3.823-.295-6.77.19-8.959a42.24 42.24 0 0 1 4.759-.415c-.968 1.854-2.212 5.103-2.383 9.75-.073 2-.642 4.272-3.679 5.753 1.063-1.684 1.44-3.739 1.113-6.13zm-3.879-9.633a17.055 17.055 0 0 1 2.655-2.44c-.992 2.564-1.786 6.578-.995 12.375.299 2.19-.132 3.973-1.281 5.3-1.728 1.997-4.699 2.625-6.323 2.823.194-7.64 2.239-13.865 5.944-18.058zM9.32 19.273c-.17-4.648-1.414-7.897-2.382-9.751 2.1.065 3.836.28 4.76.416.484 2.19.71 5.135.189 8.958-.326 2.389.05 4.443 1.11 6.125-3.032-1.481-3.604-3.751-3.677-5.749zm6.073 5.232c-1.154-1.329-1.586-3.114-1.287-5.307.79-5.79 0-9.802-.992-12.367 3.408 2.532 8.294 8.277 8.597 20.492-1.62-.193-4.58-.816-6.318-2.818zM17.19 7.499c.838-1.16 2.796-3.479 5.656-4.561 2.86 1.083 4.818 3.402 5.655 4.561-.048.052-3.882 3.967-5.657 11.12-1.333-6.402-5.606-11.067-5.654-11.12zM37.68 97.135H8.011a.838.838 0 0 1 0-1.674h29.67a.838.838 0 0 1 0 1.674zm-.884-3.914H8.894L6.4 71.665h32.892L36.797 93.22zm3.935-23.796H4.958a2.429 2.429 0 0 1-2.425-2.426 2.429 2.429 0 0 1 2.425-2.426h35.774a2.429 2.429 0 0 1 2.426 2.426 2.429 2.429 0 0 1-2.426 2.426zM186.102 133.789h-16.767v-13.55c8.377 0 12.54-3.688 14.77-6.791 2.402-3.341 2.979-6.664 3.002-6.804a1.118 1.118 0 0 0-1.079-1.304c-7.549-.17-12.314 3.57-14.968 6.697a22.473 22.473 0 0 0-1.725 2.328v-13.331c1.03-.106 2.637-.37 4.266-1.03 6.789-.915 10.185-3.923 10.378-9.194.248-6.758 3.004-10.218 3.028-10.248a1.118 1.118 0 0 0-.838-1.835 44.069 44.069 0 0 0-6.099.31c.758-1.94 1.598-2.809 1.613-2.824a1.12 1.12 0 0 0-1.089-1.881c-.117.033-2.422.725-5.1 3.044-1.131-1.507-3.474-4.089-6.925-5.238l-.001.004a1.11 1.11 0 0 0-.706-.004c-3.453 1.15-5.794 3.731-6.924 5.238-2.678-2.319-4.984-3.01-5.101-3.044a1.117 1.117 0 0 0-1.273.51c-.26.44-.185 1.003.177 1.365.018.018.861.89 1.619 2.83a43.966 43.966 0 0 0-6.098-.31 1.119 1.119 0 0 0-.838 1.835c.028.033 2.779 3.426 3.028 10.248.193 5.272 3.59 8.28 10.38 9.195 1.628.659 3.235.924 4.264 1.03v13.33a22.466 22.466 0 0 0-1.725-2.327c-2.595-3.058-7.211-6.704-14.471-6.704-.165 0-.927-.104-1.334.412a1.149 1.149 0 0 0-.242.898c.023.14.6 3.463 3.002 6.804 2.23 3.102 6.345 6.791 14.77 6.791v13.55h-16.767a4.671 4.671 0 0 0-4.666 4.666 4.669 4.669 0 0 0 3.843 4.588l2.54 21.943a3.077 3.077 0 0 0-1.742 2.768 3.08 3.08 0 0 0 3.077 3.076h29.671a3.08 3.08 0 0 0 3.076-3.076c0-1.218-.713-2.27-1.741-2.768l2.539-21.943a4.67 4.67 0 0 0 3.842-4.588 4.671 4.671 0 0 0-4.666-4.666zm-1.548-26.19a16.341 16.341 0 0 1-2.267 4.542c-2.399 3.336-5.803 5.259-10.136 5.742l3.94-2.517a1.12 1.12 0 1 0-1.205-1.888l-3.909 2.498c2.075-3.351 6.25-7.994 13.577-8.377zm-24.214 7.767 3.936 2.515c-8.599-.973-11.53-7.438-12.409-10.283 4.686.234 8.633 2.192 11.744 5.828a20.2 20.2 0 0 1 1.857 2.559l-3.922-2.507a1.12 1.12 0 0 0-1.206 1.888zm18.834-25.014c-.521-3.823-.295-6.77.189-8.959a42.24 42.24 0 0 1 4.76-.415c-.968 1.854-2.212 5.103-2.383 9.75-.073 2-.642 4.272-3.679 5.753 1.063-1.684 1.439-3.739 1.113-6.13zm-3.879-9.633a17.09 17.09 0 0 1 2.655-2.44c-.993 2.565-1.786 6.578-.995 12.376.299 2.189-.132 3.972-1.281 5.3-1.728 1.996-4.699 2.624-6.323 2.822.194-7.64 2.239-13.865 5.944-18.058zm-20.605 10.01c-.169-4.647-1.414-7.896-2.382-9.75 2.1.064 3.836.279 4.759.415.485 2.19.711 5.135.19 8.958-.326 2.389.049 4.443 1.11 6.126-3.032-1.482-3.604-3.752-3.677-5.75zm6.073 5.232c-1.154-1.329-1.586-3.114-1.287-5.306.79-5.791-.001-9.803-.992-12.368 3.408 2.532 8.294 8.277 8.597 20.492-1.62-.193-4.581-.816-6.318-2.818zm1.797-17.005c.838-1.16 2.796-3.48 5.656-4.562 2.861 1.083 4.818 3.403 5.655 4.562-.048.052-3.882 3.966-5.657 11.118-1.333-6.401-5.606-11.066-5.654-11.118zm20.491 89.635H153.38a.838.838 0 0 1 0-1.674h29.671c.461 0 .837.376.837.837a.839.839 0 0 1-.837.837zm-.884-3.914h-27.903l-2.495-21.556h32.892l-2.494 21.556zm3.935-23.796h-35.774a2.428 2.428 0 0 1-2.425-2.426 2.428 2.428 0 0 1 2.425-2.426h35.774a2.428 2.428 0 0 1 2.426 2.426 2.428 2.428 0 0 1-2.426 2.426zM300 62.333h-16.767v-13.55c8.377 0 12.54-3.689 14.77-6.791 2.402-3.341 2.979-6.664 3.002-6.804a1.118 1.118 0 0 0-1.079-1.305c-7.549-.17-12.314 3.57-14.968 6.698a22.49 22.49 0 0 0-1.725 2.328v-13.33c1.03-.107 2.637-.372 4.266-1.031 6.789-.915 10.185-3.923 10.378-9.194.247-6.758 3.003-10.218 3.028-10.249a1.118 1.118 0 0 0-.838-1.834 44.063 44.063 0 0 0-6.099.31c.758-1.94 1.598-2.809 1.613-2.824a1.12 1.12 0 0 0-1.089-1.882c-.117.034-2.422.726-5.1 3.044-1.131-1.506-3.474-4.088-6.925-5.238l-.001.005a1.11 1.11 0 0 0-.706-.005c-3.453 1.15-5.794 3.732-6.924 5.239-2.678-2.32-4.984-3.01-5.101-3.045a1.117 1.117 0 0 0-1.273.51c-.26.44-.185 1.004.177 1.365.018.019.861.89 1.619 2.831a43.959 43.959 0 0 0-6.098-.31 1.121 1.121 0 0 0-.838 1.835c.028.033 2.779 3.426 3.028 10.248.193 5.271 3.59 8.28 10.38 9.195 1.628.659 3.235.923 4.264 1.03v13.33a22.502 22.502 0 0 0-1.725-2.328c-2.595-3.058-7.211-6.703-14.471-6.703-.165 0-.927-.105-1.334.411a1.15 1.15 0 0 0-.242.899c.023.14.6 3.463 3.002 6.804 2.23 3.102 6.345 6.79 14.77 6.79v13.55h-16.767A4.671 4.671 0 0 0 259.561 67a4.67 4.67 0 0 0 3.843 4.588l2.54 21.943a3.076 3.076 0 0 0-1.742 2.767 3.08 3.08 0 0 0 3.076 3.077h29.671a3.08 3.08 0 0 0 3.077-3.076c0-1.219-.713-2.27-1.741-2.768l2.539-21.943A4.67 4.67 0 0 0 304.666 67 4.671 4.671 0 0 0 300 62.333zm-1.548-26.19a16.332 16.332 0 0 1-2.267 4.541c-2.399 3.337-5.804 5.26-10.136 5.743l3.94-2.518a1.12 1.12 0 1 0-1.206-1.887l-3.908 2.498c2.075-3.35 6.25-7.995 13.577-8.377zm-24.214 7.766 3.936 2.516c-8.599-.973-11.53-7.438-12.409-10.283 4.686.234 8.633 2.192 11.744 5.827a20.243 20.243 0 0 1 1.857 2.56l-3.922-2.507a1.12 1.12 0 1 0-1.206 1.887zm18.834-25.013c-.522-3.823-.295-6.77.189-8.959a42.252 42.252 0 0 1 4.76-.415c-.968 1.854-2.212 5.103-2.383 9.75-.073 2-.642 4.272-3.679 5.753 1.063-1.684 1.439-3.739 1.113-6.13zm-3.879-9.633a17.047 17.047 0 0 1 2.655-2.44c-.993 2.564-1.786 6.578-.995 12.375.299 2.19-.132 3.973-1.281 5.3-1.728 1.997-4.699 2.625-6.323 2.823.194-7.64 2.239-13.865 5.944-18.058zm-20.605 10.01c-.169-4.648-1.414-7.897-2.382-9.751 2.1.065 3.836.28 4.759.416.485 2.19.711 5.135.19 8.958-.326 2.389.049 4.443 1.11 6.125-3.032-1.481-3.604-3.751-3.677-5.749zm6.073 5.232c-1.154-1.329-1.586-3.114-1.287-5.307.79-5.79-.001-9.802-.992-12.367 3.408 2.532 8.294 8.277 8.597 20.492-1.62-.193-4.581-.816-6.318-2.818zm1.797-17.006c.838-1.16 2.796-3.479 5.656-4.561 2.861 1.083 4.818 3.402 5.655 4.561-.048.052-3.882 3.967-5.657 11.12-1.333-6.402-5.606-11.067-5.654-11.12zm20.491 89.636h-29.671a.838.838 0 0 1 0-1.674h29.671c.461 0 .837.375.837.837a.838.838 0 0 1-.837.837zm-.884-3.914h-27.903l-2.495-21.556h32.892l-2.494 21.556zM300 69.425h-35.774a2.428 2.428 0 0 1-2.425-2.426 2.428 2.428 0 0 1 2.425-2.426H300a2.429 2.429 0 0 1 2.426 2.426A2.429 2.429 0 0 1 300 69.425zM413.898 133.789h-16.767v-13.55c8.377 0 12.54-3.688 14.77-6.791 2.402-3.341 2.979-6.664 3.002-6.804a1.121 1.121 0 0 0-1.079-1.304c-7.549-.17-12.314 3.57-14.968 6.697a22.473 22.473 0 0 0-1.725 2.328v-13.331c1.03-.106 2.637-.37 4.266-1.03 6.789-.915 10.185-3.923 10.378-9.194.247-6.758 3.003-10.218 3.028-10.248a1.118 1.118 0 0 0-.839-1.835 44.053 44.053 0 0 0-6.098.31c.758-1.94 1.598-2.809 1.613-2.824a1.12 1.12 0 0 0-1.089-1.881c-.117.033-2.422.725-5.1 3.044-1.131-1.507-3.474-4.089-6.925-5.238l-.001.004a1.11 1.11 0 0 0-.706-.004c-3.453 1.15-5.794 3.731-6.924 5.238-2.678-2.319-4.984-3.01-5.101-3.044a1.117 1.117 0 0 0-1.273.51c-.26.44-.185 1.003.177 1.365.018.018.861.89 1.619 2.83a43.966 43.966 0 0 0-6.098-.31 1.121 1.121 0 0 0-.838 1.835c.028.033 2.779 3.426 3.028 10.248.193 5.272 3.59 8.28 10.38 9.195 1.628.659 3.234.924 4.264 1.03v13.33a22.466 22.466 0 0 0-1.725-2.327c-2.595-3.058-7.211-6.704-14.471-6.704-.165 0-.928-.104-1.334.412a1.149 1.149 0 0 0-.242.898c.023.14.6 3.463 3.002 6.804 2.23 3.102 6.345 6.791 14.77 6.791v13.55h-16.767a4.671 4.671 0 0 0-4.666 4.666 4.669 4.669 0 0 0 3.843 4.588l2.54 21.943a3.076 3.076 0 0 0-1.743 2.768 3.08 3.08 0 0 0 3.077 3.076h29.671a3.08 3.08 0 0 0 3.077-3.076c0-1.218-.713-2.27-1.741-2.768l2.539-21.943a4.67 4.67 0 0 0 3.842-4.588 4.671 4.671 0 0 0-4.666-4.666zm-1.548-26.19a16.341 16.341 0 0 1-2.267 4.542c-2.399 3.336-5.804 5.259-10.136 5.742l3.94-2.517a1.12 1.12 0 0 0-1.206-1.888l-3.908 2.498c2.075-3.351 6.25-7.994 13.577-8.377zm-24.214 7.767 3.936 2.515c-8.599-.973-11.531-7.438-12.409-10.283 4.686.234 8.633 2.192 11.744 5.828a20.2 20.2 0 0 1 1.857 2.559l-3.922-2.507a1.12 1.12 0 0 0-1.206 1.888zm18.834-25.014c-.522-3.823-.295-6.77.189-8.959a42.24 42.24 0 0 1 4.759-.415c-.967 1.854-2.211 5.103-2.382 9.75-.073 2-.642 4.272-3.679 5.753 1.063-1.684 1.439-3.739 1.113-6.13zm-3.879-9.633a17.045 17.045 0 0 1 2.655-2.44c-.993 2.565-1.786 6.578-.995 12.376.299 2.189-.132 3.972-1.281 5.3-1.728 1.996-4.699 2.624-6.323 2.822.194-7.64 2.239-13.865 5.944-18.058zm-20.605 10.01c-.17-4.647-1.414-7.896-2.382-9.75 2.1.064 3.836.279 4.759.415.485 2.19.711 5.135.19 8.958-.326 2.389.049 4.443 1.11 6.126-3.032-1.482-3.604-3.752-3.677-5.75zm6.073 5.232c-1.154-1.329-1.586-3.114-1.287-5.306.79-5.791-.001-9.803-.992-12.368 3.408 2.532 8.294 8.277 8.597 20.492-1.62-.193-4.581-.816-6.318-2.818zm1.797-17.005c.838-1.16 2.796-3.48 5.655-4.562 2.862 1.083 4.819 3.403 5.656 4.562-.048.052-3.882 3.966-5.657 11.118-1.333-6.401-5.606-11.066-5.654-11.118zm20.491 89.635h-29.671a.838.838 0 0 1 0-1.674h29.671c.461 0 .837.376.837.837a.839.839 0 0 1-.837.837zm-.884-3.914H382.06l-2.495-21.556h32.892l-2.494 21.556zm3.935-23.796h-35.774a2.428 2.428 0 0 1-2.425-2.426 2.428 2.428 0 0 1 2.425-2.426h35.774a2.428 2.428 0 0 1 2.426 2.426 2.428 2.428 0 0 1-2.426 2.426z" fill="#fff" fill-opacity=".45"/>
</svg>
