{
  "graphql": {
    "url": "https://jccda9vmda.execute-api.eu-central-1.amazonaws.com/prod",
    "cognitoClientId": "__ENV__COGNITO_POOL_CLIENT_ID",
    "cognitoUserPoolId": "__ENV__COGNITO_POOL_ID",
    "cognitoUsername": "__ENV__COGNITO_USERNAME",
    "cognitoPassword": "__ENV__COGNITO_PASSWORD"
  },
  "gimmick": {
    "apiUrl": "https://1ytv50zo03.execute-api.eu-central-1.amazonaws.com"
  },
  "consentTracker": {
    "apiUrl": "https://api.uptodate.de/consent-tracker"
  },
  "crimeCheck": {
    "apiUrl": "https://m0hwrsvz23.execute-api.eu-central-1.amazonaws.com"
  },
  "menu": {
    "apiUrl": "https://www.uptodate.de/pages/menu-api"
  },
  "shop": {
    "shopId": "26848198771"
  },
  "faceSwap": {
    "apiUrl": "https://nb4g2wyr23.execute-api.eu-central-1.amazonaws.com/prod"
  },
  "risk": {
    "apiUrl": "https://z0flent7e1.execute-api.eu-central-1.amazonaws.com/prod"
  }
}
